[Info][VersionControl][2017-12-03_12_17_51]: Looking for a version update.
[Info][VersionControl][2017-12-03_12_17_51]: Already using the latest OBC Version.
[Info][Main.py][2017-12-03_12_17_51]: Going into Safety Sleep for 30 minuites now.
[Info][StateManager][2017-12-03_12_47_54]: Initializing StateManager.
[Info][PSU][2017-12-03_12_47_56]: Initializing PSU
[Info][BAT0][2017-12-03_12_47_57]:  Battery initialised
[Info][BAT1][2017-12-03_12_47_57]:  Battery initialised
[Info][BAT2][2017-12-03_12_47_57]:  Battery initialised
[Info][BAT3][2017-12-03_12_47_57]:  Battery initialised
[Info][BAT4][2017-12-03_12_47_57]:  Battery initialised
[Info][PSUPSU][2017-12-03_12_47_57]: Doing Alex Routine for initializing Batteries shortly and shortly enable 5V für i2c fun.
[Info][PSU][2017-12-03_12_47_57]: started database logging
[Info][PSUBAT0][2017-12-03_12_47_58]:  Battery connected
[Info][PSUBAT1][2017-12-03_12_47_58]:  Battery connected
[Info][PSUBAT2][2017-12-03_12_47_58]:  Battery connected
[Info][PSUBAT3][2017-12-03_12_47_58]:  Battery connected
[Info][PSUBAT4][2017-12-03_12_47_58]:  Battery connected
[Info][PSUCIRCUIT][2017-12-03_12_47_59]: USB Power disconnected
[Info][PSUCIRCUIT][2017-12-03_12_48_00]: Connect external Circuits
[Info][PSUCIRCUIT][2017-12-03_12_48_01]: Disconnect external Circuits
[Info][PSUCIRCUIT][2017-12-03_12_48_01]: V_EXT disconnected
[Info][PSUCIRCUIT][2017-12-03_12_48_02]: Powerline VUSB_DIS disconnected
[Info][PSUCIRCUIT][2017-12-03_12_48_02]: USB Power reconnected
[Info][PSUCIRCUIT][2017-12-03_12_48_03]: Powerline VUSB_DIS disconnected
[Info][PSUCIRCUIT][2017-12-03_12_48_03]: USB Power reconnected
[Info][PSUBAT0][2017-12-03_12_48_04]:  Battery disconnected
[Info][PSUBAT1][2017-12-03_12_48_04]:  Battery disconnected
[Info][PSUBAT2][2017-12-03_12_48_04]:  Battery disconnected
[Info][PSUBAT3][2017-12-03_12_48_04]:  Battery disconnected
[Info][PSUBAT4][2017-12-03_12_48_04]:  Battery disconnected
[Info][PSUBAT0][2017-12-03_12_48_05]: Fancy Information about Battery: BAT0
[Info][PSUBAT0][2017-12-03_12_48_05]: Battery connected False 
[Info][PSUBAT0][2017-12-03_12_48_05]: Battery Charging Status:... 91%
[Info][PSUBAT0][2017-12-03_12_48_05]: Battery Voltage:........... 4000mV
[Info][PSU][2017-12-03_12_48_05]: started checking loop
[Info][PSUBAT0][2017-12-03_12_48_05]: Battery Current Capacity:.. 891mAh
[Info][PSUBAT0][2017-12-03_12_48_05]: Battery Full Capacity:..... 981mAh
[Info][PSUBAT0][2017-12-03_12_48_05]: Battery Design Capacity:... 1400mAh
[Info][PSUBAT0][2017-12-03_12_48_05]: Battery Temperature:....... 32.85C
[Info][PSUBAT0][2017-12-03_12_48_05]: FuelGauge Internal Temp:... 34.45C
[Info][PSUBAT0][2017-12-03_12_48_05]: Current Power Usage:....... -44mW
[Info][PSUBAT0][2017-12-03_12_48_05]: Current Current Usage:..... 0mAh
[Info][PSUBAT0][2017-12-03_12_48_05]: Battery flags A: [1, 0, 0, 0, 1, 0, 0, 1]
[1, 0, 0, 0, 0, 0, 0, 0]
[Warning][PSUBAT3][2017-12-03_12_48_05]: Voltage out of limits -1
[Info][PSUBAT0][2017-12-03_12_48_05]: Battery flags B: [0, 0, 0, 0, 0, 0, 0, 0]
[0, 0, 1, 0, 0, 0, 0, 0]
[Info][PSUBAT0][2017-12-03_12_48_05]: Battery Max Error:........ 100%
[Info][PSUBAT0][2017-12-03_12_48_05]: Battery State of Health:.. 70%
[Info][PSUBAT0][2017-12-03_12_48_05]: Average Time to Empty:.... 0min
[Info][PSUBAT0][2017-12-03_12_48_05]: Current Time to full:..... 0min
[Info][PSUBAT0][2017-12-03_12_48_05]: Learned Status: [0, 0, 0, 0, 0, 0, 0, 0]
[Info][PSUBAT0][2017-12-03_12_48_05]: Cycle Count: ..............1
[Info][PSUBAT1][2017-12-03_12_48_05]: Fancy Information about Battery: BAT1
[Info][PSUBAT1][2017-12-03_12_48_05]: Battery connected False 
[Info][PSUBAT1][2017-12-03_12_48_05]: Battery Charging Status:... 95%
[Info][PSUBAT1][2017-12-03_12_48_05]: Battery Voltage:........... 3988mV
[Info][PSUBAT1][2017-12-03_12_48_05]: Battery Current Capacity:.. 877mAh
[Info][PSUBAT1][2017-12-03_12_48_05]: Battery Full Capacity:..... 980mAh
[Info][PSUBAT1][2017-12-03_12_48_05]: Battery Design Capacity:... 1400mAh
[Warning][PSUBAT2][2017-12-03_12_48_05]: Battery state of charge low ... -1
[Info][PSUBAT1][2017-12-03_12_48_05]: Battery Temperature:....... 34.45C
[Error][PSUBAT2][2017-12-03_12_48_05]: Battery state of charge to low: -1, will enter safemode
[Info][PSUBAT1][2017-12-03_12_48_05]: FuelGauge Internal Temp:... 35.55C
[Info][PSUBAT1][2017-12-03_12_48_05]: Current Power Usage:....... 0mW
[Info][PSUBAT1][2017-12-03_12_48_05]: Current Current Usage:..... 0mAh
[Info][PSUBAT1][2017-12-03_12_48_05]: Battery flags A: [1, 0, 0, 0, 1, 0, 0, 1]
[1, 0, 0, 0, 0, 0, 0, 0]
[Warning][PSUBAT4][2017-12-03_12_48_05]: Battery voltage low ... -1
[Info][PSUBAT1][2017-12-03_12_48_05]: Battery flags B: [0, 0, 0, 0, 0, 0, 0, 0]
[1, 1, 1, 1, 1, 1, 1, 1]
[Error][PSUBAT4][2017-12-03_12_48_05]: Battery voltage to low: -1, will enter safemode
[Info][PSUBAT1][2017-12-03_12_48_05]: Battery Max Error:........ 100%
[Info][PSUBAT1][2017-12-03_12_48_05]: Battery State of Health:.. 70%
[Info][PSUBAT1][2017-12-03_12_48_05]: Average Time to Empty:.... 0min
[Info][PSUBAT1][2017-12-03_12_48_05]: Current Time to full:..... 0min
[Info][PSUBAT1][2017-12-03_12_48_05]: Learned Status: [0, 0, 0, 0, 0, 0, 0, 0]
[Info][PSUBAT1][2017-12-03_12_48_05]: Cycle Count: ..............1
[Info][PSUBAT2][2017-12-03_12_48_05]: Fancy Information about Battery: BAT2
[Info][PSUBAT2][2017-12-03_12_48_05]: Battery connected False 
[Info][PSUBAT2][2017-12-03_12_48_05]: Battery Charging Status:... 90%
[Info][PSUBAT2][2017-12-03_12_48_05]: Battery Voltage:........... 4000mV
[Info][PSUBAT2][2017-12-03_12_48_05]: Battery Current Capacity:.. 877mAh
[Info][PSUBAT2][2017-12-03_12_48_05]: Battery Full Capacity:..... 980mAh
[Info][PSUBAT2][2017-12-03_12_48_05]: Battery Design Capacity:... 1400mAh
[Info][PSUBAT2][2017-12-03_12_48_05]: Battery Temperature:....... 29.85C
[Info][PSUBAT2][2017-12-03_12_48_05]: FuelGauge Internal Temp:... 34.05C
[Info][PSUBAT2][2017-12-03_12_48_05]: Current Power Usage:....... 0mW
[Info][PSUBAT2][2017-12-03_12_48_05]: Current Current Usage:..... 0mAh
[Info][PSUBAT2][2017-12-03_12_48_05]: Battery flags A: [1, 0, 0, 0, 1, 0, 0, 1]
[1, 0, 0, 0, 0, 0, 0, 0]
[Info][PSUBAT2][2017-12-03_12_48_05]: Battery flags B: [0, 0, 0, 0, 0, 0, 0, 0]
[0, 0, 1, 0, 0, 0, 0, 0]
[Info][PSUBAT2][2017-12-03_12_48_05]: Battery Max Error:........ 100%
[Info][PSUBAT2][2017-12-03_12_48_05]: Battery State of Health:.. -1%
[Info][PSUBAT2][2017-12-03_12_48_05]: Average Time to Empty:.... 0min
[Info][PSUBAT2][2017-12-03_12_48_05]: Current Time to full:..... 0min
[Info][PSUBAT2][2017-12-03_12_48_05]: Learned Status: [0, 0, 0, 0, 0, 0, 0, 0]
[Info][PSUBAT2][2017-12-03_12_48_05]: Cycle Count: ..............1
[Info][PSUBAT3][2017-12-03_12_48_05]: Fancy Information about Battery: BAT3
[Info][PSUBAT3][2017-12-03_12_48_05]: Battery connected False 
[Info][PSUBAT3][2017-12-03_12_48_05]: Battery Charging Status:... -1%
[Info][PSUBAT3][2017-12-03_12_48_05]: Battery Voltage:........... 3999mV
[Info][PSUBAT3][2017-12-03_12_48_05]: Battery Current Capacity:.. 950mAh
[Info][PSUBAT3][2017-12-03_12_48_05]: Battery Full Capacity:..... 980mAh
[Info][PSUBAT3][2017-12-03_12_48_05]: Battery Design Capacity:... 1400mAh
[Info][PSUBAT3][2017-12-03_12_48_05]: Battery Temperature:....... 35.55C
[Info][PSUBAT3][2017-12-03_12_48_05]: FuelGauge Internal Temp:... 35.55C
[Info][PSUBAT3][2017-12-03_12_48_05]: Current Power Usage:....... 0mW
[Info][PSUBAT3][2017-12-03_12_48_05]: Current Current Usage:..... 1mAh
[Info][PSUBAT3][2017-12-03_12_48_05]: Battery flags A: [1, 0, 0, 0, 1, 0, 0, 1]
[0, 0, 0, 0, 0, 0, 0, 0]
[Info][PSUBAT3][2017-12-03_12_48_05]: Battery flags B: [0, 0, 0, 0, 0, 0, 0, 0]
[0, 0, 1, 0, 0, 0, 0, 0]
[Info][PSUBAT3][2017-12-03_12_48_05]: Battery Max Error:........ 100%
[Info][PSUBAT3][2017-12-03_12_48_05]: Battery State of Health:.. 70%
[Info][PSUBAT3][2017-12-03_12_48_05]: Average Time to Empty:.... 0min
[Info][PSUBAT3][2017-12-03_12_48_05]: Current Time to full:..... 0min
[Info][PSUBAT3][2017-12-03_12_48_05]: Learned Status: [0, 0, 0, 0, 0, 0, 0, 0]
[Info][PSUBAT3][2017-12-03_12_48_05]: Cycle Count: ..............1
[Info][PSUBAT4][2017-12-03_12_48_05]: Fancy Information about Battery: BAT4
[Info][PSUBAT4][2017-12-03_12_48_05]: Battery connected False 
[Info][PSUBAT4][2017-12-03_12_48_05]: Battery Charging Status:... 91%
[Info][PSUBAT4][2017-12-03_12_48_05]: Battery Voltage:........... 4001mV
[Info][PSUBAT4][2017-12-03_12_48_05]: Battery Current Capacity:.. 892mAh
[Info][PSUBAT4][2017-12-03_12_48_05]: Battery Full Capacity:..... 981mAh
[Info][PSUBAT4][2017-12-03_12_48_05]: Battery Design Capacity:... 1400mAh
[Info][PSUBAT4][2017-12-03_12_48_05]: Battery Temperature:....... 31.75C
[Info][PSUBAT4][2017-12-03_12_48_05]: FuelGauge Internal Temp:... 35.15C
[Info][PSUBAT4][2017-12-03_12_48_05]: Current Power Usage:....... 0mW
[Info][PSUBAT4][2017-12-03_12_48_05]: Current Current Usage:..... 0mAh
[Info][PSUBAT4][2017-12-03_12_48_05]: Battery flags A: [1, 0, 0, 0, 1, 0, 0, 1]
[1, 0, 0, 0, 0, 0, 0, 0]
[Info][PSUBAT4][2017-12-03_12_48_05]: Battery flags B: [0, 0, 0, 0, 0, 0, 0, 0]
[0, 0, 1, 0, 0, 0, 0, 0]
[Info][PSUBAT4][2017-12-03_12_48_05]: Battery Max Error:........ -1%
[Info][PSUBAT4][2017-12-03_12_48_06]: Battery State of Health:.. 70%
[Info][PSUBAT4][2017-12-03_12_48_06]: Average Time to Empty:.... 0min
[Info][PSUBAT4][2017-12-03_12_48_06]: Current Time to full:..... 0min
[Info][PSUBAT4][2017-12-03_12_48_06]: Learned Status: [0, 0, 0, 0, 0, 0, 0, 0]
[Info][PSUBAT4][2017-12-03_12_48_06]: Cycle Count: ..............1
[Info][PSUSTATE CHANGE][2017-12-03_12_48_06]: Changing to execution
[Warning][PSUBAT1][2017-12-03_12_48_06]: State of Charge out of limits -1
[Warning][PSUBAT3][2017-12-03_12_48_06]: Capacity out of limits -1
[Warning][PSUBAT4][2017-12-03_12_48_06]: Temperature out of limits -273.25
[Info][PSU][2017-12-03_12_48_07]: Fancy Information about PSU
[Info][PSU][2017-12-03_12_48_07]: System contains of 5 Batteries(['BAT0: False', 'BAT1: False', 'BAT2: False', 'BAT3: False', 'BAT4: False'])
[Info][PSU][2017-12-03_12_48_07]: Battery Charging Status:........ 92.8%
[Info][PSU][2017-12-03_12_48_07]: Battery Minimum Chg Status:..... 92.8%
[Info][PSU][2017-12-03_12_48_07]: Battery Highest Voltage......... 4001.0mV
[Info][PSU][2017-12-03_12_48_07]: Battery Mean Voltage:........... 3997.6mV
[Info][PSU][2017-12-03_12_48_07]: Battery Lowest Voltage:......... 3988.0mV
[Info][PSU][2017-12-03_12_48_07]: Current Current Usage:.......... -0.0mAh
[Info][PSU][2017-12-03_12_48_07]: Current Power Usage:............ -0.0mW
[Info][PSU][2017-12-03_12_48_07]: Battery Current Capacity:....... 908.0mAh
[Info][PSU][2017-12-03_12_48_07]: Battery Full Capacity:.......... 980.4mAh
[Info][PSU][2017-12-03_12_48_07]: Battery highest Temperature:.... 35.55C
[Info][PSU][2017-12-03_12_48_07]: FuelGauge highest Internal Temp: 35.55C
[Info][PSUBAT0][2017-12-03_12_48_07]:  Battery connected
[Info][PSUBAT1][2017-12-03_12_48_07]:  Battery connected
[Info][PSUBAT2][2017-12-03_12_48_07]:  Battery connected
[Info][PSUBAT3][2017-12-03_12_48_07]:  Battery connected
[Info][PSUBAT4][2017-12-03_12_48_07]:  Battery connected
[Warning][PSUBAT1][2017-12-03_12_48_07]: Voltage out of limits -1
[Warning][PSUBAT3][2017-12-03_12_48_07]: Full Capacity out of limits -1
[Warning][PSUBAT4][2017-12-03_12_48_07]: Voltage out of limits -1
[Info][PSUCIRCUIT][2017-12-03_12_48_08]: USB Power disconnected
[Info][PSUCIRCUIT][2017-12-03_12_48_09]: Connect external Circuits
[Info][PSUCIRCUIT][2017-12-03_12_48_10]: Connect 12V Circuits
[Info][PSUCIRCUIT][2017-12-03_12_48_10]: Connect external Circuits
[Info][Lightning][2017-12-03_12_48_11]:  initialized
[Verbose][i2cDetect][2017-12-03_12_48_11]: Found Address 0x18
[Info][i2cDetect][2017-12-03_12_48_11]: GPIO Expander 1 is accessible
[Verbose][i2cDetect][2017-12-03_12_48_11]: Found Address 0x19
[Info][i2cDetect][2017-12-03_12_48_11]: GPIO Expander 2 is accessible
[Verbose][i2cDetect][2017-12-03_12_48_11]: Found Address 0x1b
[Info][i2cDetect][2017-12-03_12_48_11]: Temperature Sensor on OBC is accessible
[Verbose][i2cDetect][2017-12-03_12_48_11]: Found Address 0x1f
[Info][i2cDetect][2017-12-03_12_48_11]: Temperature Sensor on Sensor board is accessible
[Verbose][i2cDetect][2017-12-03_12_48_11]: Found Address 0x21
[Info][i2cDetect][2017-12-03_12_48_11]: ADC1 on EA1 is accessible
[Verbose][i2cDetect][2017-12-03_12_48_11]: Found Address 0x22
[Info][i2cDetect][2017-12-03_12_48_11]: ADC2 on EA1 is accessible
[Verbose][i2cDetect][2017-12-03_12_48_11]: Found Address 0x23
[Info][i2cDetect][2017-12-03_12_48_11]: ADC1 on EA2 is accessible
[Verbose][i2cDetect][2017-12-03_12_48_11]: Found Address 0x24
[Info][i2cDetect][2017-12-03_12_48_11]: ADC2 on EA2 is accessible
[Verbose][i2cDetect][2017-12-03_12_48_11]: Found Address 0x32
[Info][i2cDetect][2017-12-03_12_48_11]: LED is accessible
[Verbose][i2cDetect][2017-12-03_12_48_11]: Found Address 0x48
[Info][i2cDetect][2017-12-03_12_48_11]: ADC for Accelerometer Sensor is accessible
[Verbose][i2cDetect][2017-12-03_12_48_11]: Found Address 0x49
[Info][i2cDetect][2017-12-03_12_48_11]: ADC for Sound Sensor is accessible
[Verbose][i2cDetect][2017-12-03_12_48_11]: Found Address 0x4b
[Info][i2cDetect][2017-12-03_12_48_11]: ADC Current Sensor is accessible
[Verbose][i2cDetect][2017-12-03_12_48_11]: Found Address 0x55
[Info][i2cDetect][2017-12-03_12_48_11]: Fuel Gauge is accessible
[Verbose][i2cDetect][2017-12-03_12_48_11]: Found Address 0x70
[Info][i2cDetect][2017-12-03_12_48_11]: switch2 on Sensorboard is accessible
[Verbose][i2cDetect][2017-12-03_12_48_11]: Found Address 0x72
[Info][i2cDetect][2017-12-03_12_48_11]: i2c Switch1 for Fuel Gage is accessible
[Info][i2cDetect][2017-12-03_12_48_11]: Aktuator board is accessible
[Info][i2cDetect][2017-12-03_12_48_11]: Found 15 device(s)
[Info][PSUSTATE CHANGE][2017-12-03_12_48_11]: Ending execution
[Info][PSUCIRCUIT][2017-12-03_12_48_11]: Disconnect 12V Circuits
[Info][PSUCIRCUIT][2017-12-03_12_48_11]: Powerline 12V_EN disconnected
[Info][PSUCIRCUIT][2017-12-03_12_48_11]: Disconnect external Circuits
[Info][PSUCIRCUIT][2017-12-03_12_48_11]: V_EXT disconnected
[Info][StateManager][2017-12-03_12_48_12]: going in 5 seconds sleep before Main Loop.
[Warning][PSUBAT3][2017-12-03_12_48_17]: Voltage out of limits -1
[Info][StateManager][2017-12-03_12_48_17]: StateManager is entering main loop.
[Info][StateManager][2017-12-03_12_48_17]: Switching to state SafeState
[Info][PSUSTATE CHANGE][2017-12-03_12_48_17]: Ending execution
[Info][PSUCIRCUIT][2017-12-03_12_48_17]: Disconnect 12V Circuits
[Info][PSUCIRCUIT][2017-12-03_12_48_17]: Powerline 12V_EN disconnected
[Info][PSUCIRCUIT][2017-12-03_12_48_17]: Disconnect external Circuits
[Info][PSUCIRCUIT][2017-12-03_12_48_17]: V_EXT disconnected
[Info][PSUBAT0][2017-12-03_12_48_19]:  Battery connected
[Info][PSUBAT1][2017-12-03_12_48_19]:  Battery connected
[Info][PSUBAT2][2017-12-03_12_48_19]:  Battery connected
[Info][PSUBAT3][2017-12-03_12_48_19]:  Battery connected
[Info][PSUBAT4][2017-12-03_12_48_19]:  Battery connected
[Info][PSUCIRCUIT][2017-12-03_12_48_20]: Powerline VUSB_DIS disconnected
[Info][PSUCIRCUIT][2017-12-03_12_48_20]: USB Power reconnected
[Warning][StateManager][2017-12-03_12_48_20]: Can't reach target fps, current fps: 0.38654812524159254
[Info][SafeState][2017-12-03_12_48_20]: The SafeState was triggered.
[Info][Lightning][2017-12-03_12_48_21]:  initialized
[Info][Camera][2017-12-03_12_48_21]:  initialized.
[Error][Camera][2017-12-03_12_48_21]: Could not stop Camera.
[Info][Lightning][2017-12-03_12_48_21]: LED lightning is off.
[Info][PSUSTATE CHANGE][2017-12-03_12_48_21]: Ending execution
[Info][PSUCIRCUIT][2017-12-03_12_48_21]: Disconnect 12V Circuits
[Info][PSUCIRCUIT][2017-12-03_12_48_21]: Powerline 12V_EN disconnected
[Info][PSUCIRCUIT][2017-12-03_12_48_21]: Disconnect external Circuits
[Info][PSUCIRCUIT][2017-12-03_12_48_21]: V_EXT disconnected
[Info][PSUCIRCUIT][2017-12-03_12_48_21]: Powerline VUSB_DIS disconnected
[Info][PSUCIRCUIT][2017-12-03_12_48_21]: USB Power reconnected
[Info][PSUBAT0][2017-12-03_12_48_22]:  Battery disconnected
[Info][PSUBAT1][2017-12-03_12_48_22]:  Battery disconnected
[Info][PSUBAT2][2017-12-03_12_48_22]:  Battery disconnected
[Info][PSUBAT3][2017-12-03_12_48_22]:  Battery disconnected
[Info][PSUBAT4][2017-12-03_12_48_22]:  Battery disconnected
[Info][SafeState][2017-12-03_12_48_22]: Trying to recover.
[Warning][Transfer][2017-12-03_12_48_22]: Expander on Address 0x18 is not available!
[Warning][Transfer][2017-12-03_12_48_22]: Expander on Address 0x19 is not available!
[Warning][Transfer][2017-12-03_12_48_22]: Valve 1 is not available!
[Warning][Transfer][2017-12-03_12_48_22]: Valve 2 is not available!
[Warning][Transfer][2017-12-03_12_48_22]: Valve 3 is not available!
[Warning][Transfer][2017-12-03_12_48_22]: Valve 4 is not available!
[Warning][Transfer][2017-12-03_12_48_22]: Pump 1 is not available!
[Warning][Transfer][2017-12-03_12_48_22]: Pump 2 is not available!
[Info][Transfer][2017-12-03_12_48_22]: All valves closed and all Pumps stopped
[Error][SafeState][2017-12-03_12_48_22]: None is not Working. Staying in Safe mode until it is fixed! Error: 'NoneType' object has no attribute 'stop'
[Error][SafeState][2017-12-03_12_48_22]: None is not Working. Staying in Safe mode until it is fixed! Error: 'NoneType' object has no attribute 'stop'
[Error][SafeState][2017-12-03_12_48_22]: None is not Working. Staying in Safe mode until it is fixed! Error: 'NoneType' object has no attribute 'close'
[Error][SafeState][2017-12-03_12_48_22]: None is not Working. Staying in Safe mode until it is fixed! Error: 'NoneType' object has no attribute 'close'
[Error][SafeState][2017-12-03_12_48_22]: None is not Working. Staying in Safe mode until it is fixed! Error: 'NoneType' object has no attribute 'close'
[Error][SafeState][2017-12-03_12_48_22]: None is not Working. Staying in Safe mode until it is fixed! Error: 'NoneType' object has no attribute 'close'
[Info][SafeState][2017-12-03_12_48_23]: Temperature sensor on Sensorboard reads: 27.5
[Info][SafeState][2017-12-03_12_48_23]: Temperature sensor on OBC reads: 35.375
[Warning][SafeState][2017-12-03_12_48_23]: Could not recover. Trying again in 30 minutes.
[Warning][PSUBAT4][2017-12-03_13_01_46]: State of Charge out of limits -1
[Info][SafeState][2017-12-03_13_18_23]: Trying to recover.
[Warning][Transfer][2017-12-03_13_18_23]: Expander on Address 0x18 is not available!
[Warning][Transfer][2017-12-03_13_18_23]: Expander on Address 0x19 is not available!
[Warning][Transfer][2017-12-03_13_18_23]: Valve 1 is not available!
[Warning][Transfer][2017-12-03_13_18_23]: Valve 2 is not available!
[Warning][Transfer][2017-12-03_13_18_23]: Valve 3 is not available!
[Warning][Transfer][2017-12-03_13_18_23]: Valve 4 is not available!
[Warning][Transfer][2017-12-03_13_18_23]: Pump 1 is not available!
[Warning][Transfer][2017-12-03_13_18_23]: Pump 2 is not available!
[Info][Transfer][2017-12-03_13_18_23]: All valves closed and all Pumps stopped
[Error][SafeState][2017-12-03_13_18_23]: None is not Working. Staying in Safe mode until it is fixed! Error: 'NoneType' object has no attribute 'stop'
[Error][SafeState][2017-12-03_13_18_23]: None is not Working. Staying in Safe mode until it is fixed! Error: 'NoneType' object has no attribute 'stop'
[Error][SafeState][2017-12-03_13_18_23]: None is not Working. Staying in Safe mode until it is fixed! Error: 'NoneType' object has no attribute 'close'
[Error][SafeState][2017-12-03_13_18_23]: None is not Working. Staying in Safe mode until it is fixed! Error: 'NoneType' object has no attribute 'close'
[Error][SafeState][2017-12-03_13_18_23]: None is not Working. Staying in Safe mode until it is fixed! Error: 'NoneType' object has no attribute 'close'
[Error][SafeState][2017-12-03_13_18_23]: None is not Working. Staying in Safe mode until it is fixed! Error: 'NoneType' object has no attribute 'close'
[Info][SafeState][2017-12-03_13_18_23]: Temperature sensor on Sensorboard reads: 27.6875
[Info][SafeState][2017-12-03_13_18_23]: Temperature sensor on OBC reads: 35.625
[Warning][SafeState][2017-12-03_13_18_23]: Could not recover. Trying again in 30 minutes.
[Warning][PSUBAT3][2017-12-03_13_18_23]: Battery state of charge low ... -1
[Error][PSUBAT3][2017-12-03_13_18_23]: Battery state of charge to low: -1, will enter safemode
[Info][SafeState][2017-12-03_13_48_23]: Trying to recover.
[Warning][Transfer][2017-12-03_13_48_23]: Expander on Address 0x18 is not available!
[Warning][Transfer][2017-12-03_13_48_23]: Expander on Address 0x19 is not available!
[Warning][Transfer][2017-12-03_13_48_23]: Valve 1 is not available!
[Warning][Transfer][2017-12-03_13_48_23]: Valve 2 is not available!
[Warning][Transfer][2017-12-03_13_48_23]: Valve 3 is not available!
[Warning][Transfer][2017-12-03_13_48_23]: Valve 4 is not available!
[Warning][Transfer][2017-12-03_13_48_23]: Pump 1 is not available!
[Warning][Transfer][2017-12-03_13_48_23]: Pump 2 is not available!
[Info][Transfer][2017-12-03_13_48_23]: All valves closed and all Pumps stopped
[Error][SafeState][2017-12-03_13_48_23]: None is not Working. Staying in Safe mode until it is fixed! Error: 'NoneType' object has no attribute 'stop'
[Error][SafeState][2017-12-03_13_48_23]: None is not Working. Staying in Safe mode until it is fixed! Error: 'NoneType' object has no attribute 'stop'
[Error][SafeState][2017-12-03_13_48_23]: None is not Working. Staying in Safe mode until it is fixed! Error: 'NoneType' object has no attribute 'close'
[Error][SafeState][2017-12-03_13_48_23]: None is not Working. Staying in Safe mode until it is fixed! Error: 'NoneType' object has no attribute 'close'
[Error][SafeState][2017-12-03_13_48_23]: None is not Working. Staying in Safe mode until it is fixed! Error: 'NoneType' object has no attribute 'close'
[Error][SafeState][2017-12-03_13_48_23]: None is not Working. Staying in Safe mode until it is fixed! Error: 'NoneType' object has no attribute 'close'
[Info][SafeState][2017-12-03_13_48_23]: Temperature sensor on Sensorboard reads: 27.75
[Info][SafeState][2017-12-03_13_48_23]: Temperature sensor on OBC reads: 35.6875
[Warning][SafeState][2017-12-03_13_48_23]: Could not recover. Trying again in 30 minutes.
[Info][SafeState][2017-12-03_14_18_23]: Trying to recover.
[Warning][Transfer][2017-12-03_14_18_23]: Expander on Address 0x18 is not available!
[Warning][Transfer][2017-12-03_14_18_23]: Expander on Address 0x19 is not available!
[Warning][Transfer][2017-12-03_14_18_23]: Valve 1 is not available!
[Warning][Transfer][2017-12-03_14_18_23]: Valve 2 is not available!
[Warning][Transfer][2017-12-03_14_18_23]: Valve 3 is not available!
[Warning][Transfer][2017-12-03_14_18_23]: Valve 4 is not available!
[Warning][Transfer][2017-12-03_14_18_23]: Pump 1 is not available!
[Warning][Transfer][2017-12-03_14_18_23]: Pump 2 is not available!
[Info][Transfer][2017-12-03_14_18_23]: All valves closed and all Pumps stopped
[Error][SafeState][2017-12-03_14_18_23]: None is not Working. Staying in Safe mode until it is fixed! Error: 'NoneType' object has no attribute 'stop'
[Error][SafeState][2017-12-03_14_18_23]: None is not Working. Staying in Safe mode until it is fixed! Error: 'NoneType' object has no attribute 'stop'
[Error][SafeState][2017-12-03_14_18_23]: None is not Working. Staying in Safe mode until it is fixed! Error: 'NoneType' object has no attribute 'close'
[Error][SafeState][2017-12-03_14_18_23]: None is not Working. Staying in Safe mode until it is fixed! Error: 'NoneType' object has no attribute 'close'
[Error][SafeState][2017-12-03_14_18_23]: None is not Working. Staying in Safe mode until it is fixed! Error: 'NoneType' object has no attribute 'close'
[Error][SafeState][2017-12-03_14_18_23]: None is not Working. Staying in Safe mode until it is fixed! Error: 'NoneType' object has no attribute 'close'
[Info][SafeState][2017-12-03_14_18_23]: Temperature sensor on Sensorboard reads: 27.75
[Info][SafeState][2017-12-03_14_18_23]: Temperature sensor on OBC reads: 35.6875
[Warning][SafeState][2017-12-03_14_18_23]: Could not recover. Trying again in 30 minutes.
[Info][SafeState][2017-12-03_14_48_23]: Trying to recover.
[Warning][Transfer][2017-12-03_14_48_23]: Expander on Address 0x18 is not available!
[Warning][Transfer][2017-12-03_14_48_23]: Expander on Address 0x19 is not available!
[Warning][Transfer][2017-12-03_14_48_23]: Valve 1 is not available!
[Warning][Transfer][2017-12-03_14_48_23]: Valve 2 is not available!
[Warning][Transfer][2017-12-03_14_48_23]: Valve 3 is not available!
[Warning][Transfer][2017-12-03_14_48_23]: Valve 4 is not available!
[Warning][Transfer][2017-12-03_14_48_23]: Pump 1 is not available!
[Warning][Transfer][2017-12-03_14_48_23]: Pump 2 is not available!
[Info][Transfer][2017-12-03_14_48_23]: All valves closed and all Pumps stopped
[Error][SafeState][2017-12-03_14_48_23]: None is not Working. Staying in Safe mode until it is fixed! Error: 'NoneType' object has no attribute 'stop'
[Error][SafeState][2017-12-03_14_48_23]: None is not Working. Staying in Safe mode until it is fixed! Error: 'NoneType' object has no attribute 'stop'
[Error][SafeState][2017-12-03_14_48_23]: None is not Working. Staying in Safe mode until it is fixed! Error: 'NoneType' object has no attribute 'close'
[Error][SafeState][2017-12-03_14_48_23]: None is not Working. Staying in Safe mode until it is fixed! Error: 'NoneType' object has no attribute 'close'
[Error][SafeState][2017-12-03_14_48_23]: None is not Working. Staying in Safe mode until it is fixed! Error: 'NoneType' object has no attribute 'close'
[Error][SafeState][2017-12-03_14_48_23]: None is not Working. Staying in Safe mode until it is fixed! Error: 'NoneType' object has no attribute 'close'
[Info][SafeState][2017-12-03_14_48_23]: Temperature sensor on Sensorboard reads: 27.75
[Info][SafeState][2017-12-03_14_48_23]: Temperature sensor on OBC reads: 35.6875
[Warning][SafeState][2017-12-03_14_48_23]: Could not recover. Trying again in 30 minutes.
[Warning][PSUBAT4][2017-12-03_14_48_24]: Full Capacity out of limits -1
[Warning][PSUBAT1][2017-12-03_14_48_24]: Battery voltage low ... -1
[Error][PSUBAT1][2017-12-03_14_48_24]: Battery voltage to low: -1, will enter safemode
[Warning][PSUBAT1][2017-12-03_14_48_24]: Battery state of charge low ... -1
[Error][PSUBAT1][2017-12-03_14_48_24]: Battery state of charge to low: -1, will enter safemode
[Warning][PSUBAT1][2017-12-03_15_17_01]: Capacity out of limits -1
[Warning][PSUBAT2][2017-12-03_15_17_01]: Internal Temperature out of limits -273.25
[Info][SafeState][2017-12-03_15_18_23]: Trying to recover.
[Warning][Transfer][2017-12-03_15_18_23]: Expander on Address 0x18 is not available!
[Warning][Transfer][2017-12-03_15_18_23]: Expander on Address 0x19 is not available!
[Warning][Transfer][2017-12-03_15_18_23]: Valve 1 is not available!
[Warning][Transfer][2017-12-03_15_18_23]: Valve 2 is not available!
[Warning][Transfer][2017-12-03_15_18_23]: Valve 3 is not available!
[Warning][Transfer][2017-12-03_15_18_23]: Valve 4 is not available!
[Warning][Transfer][2017-12-03_15_18_23]: Pump 1 is not available!
[Warning][Transfer][2017-12-03_15_18_23]: Pump 2 is not available!
[Info][Transfer][2017-12-03_15_18_23]: All valves closed and all Pumps stopped
[Error][SafeState][2017-12-03_15_18_23]: None is not Working. Staying in Safe mode until it is fixed! Error: 'NoneType' object has no attribute 'stop'
[Error][SafeState][2017-12-03_15_18_23]: None is not Working. Staying in Safe mode until it is fixed! Error: 'NoneType' object has no attribute 'stop'
[Error][SafeState][2017-12-03_15_18_23]: None is not Working. Staying in Safe mode until it is fixed! Error: 'NoneType' object has no attribute 'close'
[Error][SafeState][2017-12-03_15_18_23]: None is not Working. Staying in Safe mode until it is fixed! Error: 'NoneType' object has no attribute 'close'
[Error][SafeState][2017-12-03_15_18_23]: None is not Working. Staying in Safe mode until it is fixed! Error: 'NoneType' object has no attribute 'close'
[Error][SafeState][2017-12-03_15_18_23]: None is not Working. Staying in Safe mode until it is fixed! Error: 'NoneType' object has no attribute 'close'
[Info][SafeState][2017-12-03_15_18_24]: Temperature sensor on Sensorboard reads: 27.75
[Info][SafeState][2017-12-03_15_18_24]: Temperature sensor on OBC reads: 35.6875
[Warning][SafeState][2017-12-03_15_18_24]: Could not recover. Trying again in 30 minutes.
[Warning][PSUBAT4][2017-12-03_15_18_24]: Full Capacity out of limits -1
[Warning][PSUBAT4][2017-12-03_15_18_24]: Temperature out of limits -273.25
[Info][SafeState][2017-12-03_15_48_24]: Trying to recover.
[Warning][Transfer][2017-12-03_15_48_24]: Expander on Address 0x18 is not available!
[Warning][Transfer][2017-12-03_15_48_24]: Expander on Address 0x19 is not available!
[Warning][Transfer][2017-12-03_15_48_24]: Valve 1 is not available!
[Warning][Transfer][2017-12-03_15_48_24]: Valve 2 is not available!
[Warning][Transfer][2017-12-03_15_48_24]: Valve 3 is not available!
[Warning][Transfer][2017-12-03_15_48_24]: Valve 4 is not available!
[Warning][Transfer][2017-12-03_15_48_24]: Pump 1 is not available!
[Warning][Transfer][2017-12-03_15_48_24]: Pump 2 is not available!
[Info][Transfer][2017-12-03_15_48_24]: All valves closed and all Pumps stopped
[Error][SafeState][2017-12-03_15_48_24]: None is not Working. Staying in Safe mode until it is fixed! Error: 'NoneType' object has no attribute 'stop'
[Error][SafeState][2017-12-03_15_48_24]: None is not Working. Staying in Safe mode until it is fixed! Error: 'NoneType' object has no attribute 'stop'
[Error][SafeState][2017-12-03_15_48_24]: None is not Working. Staying in Safe mode until it is fixed! Error: 'NoneType' object has no attribute 'close'
[Error][SafeState][2017-12-03_15_48_24]: None is not Working. Staying in Safe mode until it is fixed! Error: 'NoneType' object has no attribute 'close'
[Error][SafeState][2017-12-03_15_48_24]: None is not Working. Staying in Safe mode until it is fixed! Error: 'NoneType' object has no attribute 'close'
[Error][SafeState][2017-12-03_15_48_24]: None is not Working. Staying in Safe mode until it is fixed! Error: 'NoneType' object has no attribute 'close'
[Info][SafeState][2017-12-03_15_48_24]: Temperature sensor on Sensorboard reads: 27.75
[Info][SafeState][2017-12-03_15_48_24]: Temperature sensor on OBC reads: 35.6875
[Warning][SafeState][2017-12-03_15_48_24]: Could not recover. Trying again in 30 minutes.
[Info][SafeState][2017-12-03_16_18_24]: Trying to recover.
[Warning][Transfer][2017-12-03_16_18_24]: Expander on Address 0x18 is not available!
[Warning][Transfer][2017-12-03_16_18_24]: Expander on Address 0x19 is not available!
[Warning][Transfer][2017-12-03_16_18_24]: Valve 1 is not available!
[Warning][Transfer][2017-12-03_16_18_24]: Valve 2 is not available!
[Warning][Transfer][2017-12-03_16_18_24]: Valve 3 is not available!
[Warning][Transfer][2017-12-03_16_18_24]: Valve 4 is not available!
[Warning][Transfer][2017-12-03_16_18_24]: Pump 1 is not available!
[Warning][Transfer][2017-12-03_16_18_24]: Pump 2 is not available!
[Info][Transfer][2017-12-03_16_18_24]: All valves closed and all Pumps stopped
[Error][SafeState][2017-12-03_16_18_24]: None is not Working. Staying in Safe mode until it is fixed! Error: 'NoneType' object has no attribute 'stop'
[Error][SafeState][2017-12-03_16_18_24]: None is not Working. Staying in Safe mode until it is fixed! Error: 'NoneType' object has no attribute 'stop'
[Error][SafeState][2017-12-03_16_18_24]: None is not Working. Staying in Safe mode until it is fixed! Error: 'NoneType' object has no attribute 'close'
[Error][SafeState][2017-12-03_16_18_24]: None is not Working. Staying in Safe mode until it is fixed! Error: 'NoneType' object has no attribute 'close'
[Error][SafeState][2017-12-03_16_18_24]: None is not Working. Staying in Safe mode until it is fixed! Error: 'NoneType' object has no attribute 'close'
[Error][SafeState][2017-12-03_16_18_24]: None is not Working. Staying in Safe mode until it is fixed! Error: 'NoneType' object has no attribute 'close'
[Info][SafeState][2017-12-03_16_18_24]: Temperature sensor on Sensorboard reads: 27.6875
[Info][SafeState][2017-12-03_16_18_24]: Temperature sensor on OBC reads: 35.6875
[Warning][SafeState][2017-12-03_16_18_24]: Could not recover. Trying again in 30 minutes.
[Info][SafeState][2017-12-03_16_48_24]: Trying to recover.
[Warning][Transfer][2017-12-03_16_48_24]: Expander on Address 0x18 is not available!
[Warning][Transfer][2017-12-03_16_48_24]: Expander on Address 0x19 is not available!
[Warning][Transfer][2017-12-03_16_48_24]: Valve 1 is not available!
[Warning][Transfer][2017-12-03_16_48_24]: Valve 2 is not available!
[Warning][Transfer][2017-12-03_16_48_24]: Valve 3 is not available!
[Warning][Transfer][2017-12-03_16_48_24]: Valve 4 is not available!
[Warning][Transfer][2017-12-03_16_48_24]: Pump 1 is not available!
[Warning][Transfer][2017-12-03_16_48_24]: Pump 2 is not available!
[Info][Transfer][2017-12-03_16_48_24]: All valves closed and all Pumps stopped
[Error][SafeState][2017-12-03_16_48_24]: None is not Working. Staying in Safe mode until it is fixed! Error: 'NoneType' object has no attribute 'stop'
[Error][SafeState][2017-12-03_16_48_24]: None is not Working. Staying in Safe mode until it is fixed! Error: 'NoneType' object has no attribute 'stop'
[Error][SafeState][2017-12-03_16_48_24]: None is not Working. Staying in Safe mode until it is fixed! Error: 'NoneType' object has no attribute 'close'
[Error][SafeState][2017-12-03_16_48_24]: None is not Working. Staying in Safe mode until it is fixed! Error: 'NoneType' object has no attribute 'close'
[Error][SafeState][2017-12-03_16_48_24]: None is not Working. Staying in Safe mode until it is fixed! Error: 'NoneType' object has no attribute 'close'
[Error][SafeState][2017-12-03_16_48_24]: None is not Working. Staying in Safe mode until it is fixed! Error: 'NoneType' object has no attribute 'close'
[Info][SafeState][2017-12-03_16_48_24]: Temperature sensor on Sensorboard reads: 27.75
[Info][SafeState][2017-12-03_16_48_24]: Temperature sensor on OBC reads: 35.625
[Warning][SafeState][2017-12-03_16_48_24]: Could not recover. Trying again in 30 minutes.
[Warning][PSUBAT3][2017-12-03_16_48_25]: Temperature out of limits -273.25
[Warning][PSUBAT3][2017-12-03_17_13_28]: Capacity out of limits -1
[Info][SafeState][2017-12-03_17_18_24]: Trying to recover.
[Warning][Transfer][2017-12-03_17_18_24]: Expander on Address 0x18 is not available!
[Warning][Transfer][2017-12-03_17_18_24]: Expander on Address 0x19 is not available!
[Warning][Transfer][2017-12-03_17_18_24]: Valve 1 is not available!
[Warning][Transfer][2017-12-03_17_18_24]: Valve 2 is not available!
[Warning][Transfer][2017-12-03_17_18_24]: Valve 3 is not available!
[Warning][Transfer][2017-12-03_17_18_24]: Valve 4 is not available!
[Warning][Transfer][2017-12-03_17_18_24]: Pump 1 is not available!
[Warning][Transfer][2017-12-03_17_18_24]: Pump 2 is not available!
[Info][Transfer][2017-12-03_17_18_24]: All valves closed and all Pumps stopped
[Error][SafeState][2017-12-03_17_18_24]: None is not Working. Staying in Safe mode until it is fixed! Error: 'NoneType' object has no attribute 'stop'
[Error][SafeState][2017-12-03_17_18_24]: None is not Working. Staying in Safe mode until it is fixed! Error: 'NoneType' object has no attribute 'stop'
[Error][SafeState][2017-12-03_17_18_24]: None is not Working. Staying in Safe mode until it is fixed! Error: 'NoneType' object has no attribute 'close'
[Error][SafeState][2017-12-03_17_18_24]: None is not Working. Staying in Safe mode until it is fixed! Error: 'NoneType' object has no attribute 'close'
[Error][SafeState][2017-12-03_17_18_24]: None is not Working. Staying in Safe mode until it is fixed! Error: 'NoneType' object has no attribute 'close'
[Error][SafeState][2017-12-03_17_18_24]: None is not Working. Staying in Safe mode until it is fixed! Error: 'NoneType' object has no attribute 'close'
[Info][SafeState][2017-12-03_17_18_24]: Temperature sensor on Sensorboard reads: 27.6875
[Warning][PSUBAT4][2017-12-03_17_18_24]: Voltage out of limits -1
[Info][SafeState][2017-12-03_17_18_24]: Temperature sensor on OBC reads: 35.625
[Warning][SafeState][2017-12-03_17_18_24]: Could not recover. Trying again in 30 minutes.
[Warning][PSUBAT0][2017-12-03_17_46_38]: State of Charge out of limits -1
[Info][SafeState][2017-12-03_17_48_25]: Trying to recover.
[Warning][Transfer][2017-12-03_17_48_25]: Expander on Address 0x18 is not available!
[Warning][Transfer][2017-12-03_17_48_25]: Expander on Address 0x19 is not available!
[Warning][Transfer][2017-12-03_17_48_25]: Valve 1 is not available!
[Warning][Transfer][2017-12-03_17_48_25]: Valve 2 is not available!
[Warning][Transfer][2017-12-03_17_48_25]: Valve 3 is not available!
[Warning][Transfer][2017-12-03_17_48_25]: Valve 4 is not available!
[Warning][Transfer][2017-12-03_17_48_25]: Pump 1 is not available!
[Warning][Transfer][2017-12-03_17_48_25]: Pump 2 is not available!
[Info][Transfer][2017-12-03_17_48_25]: All valves closed and all Pumps stopped
[Error][SafeState][2017-12-03_17_48_25]: None is not Working. Staying in Safe mode until it is fixed! Error: 'NoneType' object has no attribute 'stop'
[Error][SafeState][2017-12-03_17_48_25]: None is not Working. Staying in Safe mode until it is fixed! Error: 'NoneType' object has no attribute 'stop'
[Error][SafeState][2017-12-03_17_48_25]: None is not Working. Staying in Safe mode until it is fixed! Error: 'NoneType' object has no attribute 'close'
[Error][SafeState][2017-12-03_17_48_25]: None is not Working. Staying in Safe mode until it is fixed! Error: 'NoneType' object has no attribute 'close'
[Error][SafeState][2017-12-03_17_48_25]: None is not Working. Staying in Safe mode until it is fixed! Error: 'NoneType' object has no attribute 'close'
[Error][SafeState][2017-12-03_17_48_25]: None is not Working. Staying in Safe mode until it is fixed! Error: 'NoneType' object has no attribute 'close'
[Info][SafeState][2017-12-03_17_48_25]: Temperature sensor on Sensorboard reads: 27.6875
[Info][SafeState][2017-12-03_17_48_25]: Temperature sensor on OBC reads: 35.5625
[Warning][SafeState][2017-12-03_17_48_25]: Could not recover. Trying again in 30 minutes.
[Info][SafeState][2017-12-03_18_18_25]: Trying to recover.
[Warning][Transfer][2017-12-03_18_18_25]: Expander on Address 0x18 is not available!
[Warning][Transfer][2017-12-03_18_18_25]: Expander on Address 0x19 is not available!
[Warning][Transfer][2017-12-03_18_18_25]: Valve 1 is not available!
[Warning][Transfer][2017-12-03_18_18_25]: Valve 2 is not available!
[Warning][Transfer][2017-12-03_18_18_25]: Valve 3 is not available!
[Warning][Transfer][2017-12-03_18_18_25]: Valve 4 is not available!
[Warning][Transfer][2017-12-03_18_18_25]: Pump 1 is not available!
[Warning][Transfer][2017-12-03_18_18_25]: Pump 2 is not available!
[Info][Transfer][2017-12-03_18_18_25]: All valves closed and all Pumps stopped
[Error][SafeState][2017-12-03_18_18_25]: None is not Working. Staying in Safe mode until it is fixed! Error: 'NoneType' object has no attribute 'stop'
[Error][SafeState][2017-12-03_18_18_25]: None is not Working. Staying in Safe mode until it is fixed! Error: 'NoneType' object has no attribute 'stop'
[Error][SafeState][2017-12-03_18_18_25]: None is not Working. Staying in Safe mode until it is fixed! Error: 'NoneType' object has no attribute 'close'
[Error][SafeState][2017-12-03_18_18_25]: None is not Working. Staying in Safe mode until it is fixed! Error: 'NoneType' object has no attribute 'close'
[Error][SafeState][2017-12-03_18_18_25]: None is not Working. Staying in Safe mode until it is fixed! Error: 'NoneType' object has no attribute 'close'
[Error][SafeState][2017-12-03_18_18_25]: None is not Working. Staying in Safe mode until it is fixed! Error: 'NoneType' object has no attribute 'close'
[Info][SafeState][2017-12-03_18_18_25]: Temperature sensor on Sensorboard reads: 27.625
[Info][SafeState][2017-12-03_18_18_25]: Temperature sensor on OBC reads: 35.625
[Warning][SafeState][2017-12-03_18_18_25]: Could not recover. Trying again in 30 minutes.
[Warning][PSUBAT1][2017-12-03_18_29_26]: State of Charge out of limits -1
[Warning][PSUBAT1][2017-12-03_18_29_26]: Full Capacity out of limits -1
[Warning][PSUBAT2][2017-12-03_18_29_26]: State of Charge out of limits -1
[Warning][PSUBAT4][2017-12-03_18_29_26]: Capacity out of limits -1
[Warning][PSUBAT1][2017-12-03_18_29_26]: Battery voltage low ... -1
[Error][PSUBAT1][2017-12-03_18_29_26]: Battery voltage to low: -1, will enter safemode
[Warning][PSUBAT4][2017-12-03_18_29_27]: Battery voltage low ... -1
[Error][PSUBAT4][2017-12-03_18_29_27]: Battery voltage to low: -1, will enter safemode
[Info][SafeState][2017-12-03_18_48_25]: Trying to recover.
[Warning][Transfer][2017-12-03_18_48_25]: Expander on Address 0x18 is not available!
[Warning][Transfer][2017-12-03_18_48_25]: Expander on Address 0x19 is not available!
[Warning][Transfer][2017-12-03_18_48_25]: Valve 1 is not available!
[Warning][Transfer][2017-12-03_18_48_25]: Valve 2 is not available!
[Warning][Transfer][2017-12-03_18_48_25]: Valve 3 is not available!
[Warning][Transfer][2017-12-03_18_48_25]: Valve 4 is not available!
[Warning][Transfer][2017-12-03_18_48_25]: Pump 1 is not available!
[Warning][Transfer][2017-12-03_18_48_25]: Pump 2 is not available!
[Info][Transfer][2017-12-03_18_48_25]: All valves closed and all Pumps stopped
[Error][SafeState][2017-12-03_18_48_25]: None is not Working. Staying in Safe mode until it is fixed! Error: 'NoneType' object has no attribute 'stop'
[Error][SafeState][2017-12-03_18_48_25]: None is not Working. Staying in Safe mode until it is fixed! Error: 'NoneType' object has no attribute 'stop'
[Error][SafeState][2017-12-03_18_48_25]: None is not Working. Staying in Safe mode until it is fixed! Error: 'NoneType' object has no attribute 'close'
[Error][SafeState][2017-12-03_18_48_25]: None is not Working. Staying in Safe mode until it is fixed! Error: 'NoneType' object has no attribute 'close'
[Error][SafeState][2017-12-03_18_48_25]: None is not Working. Staying in Safe mode until it is fixed! Error: 'NoneType' object has no attribute 'close'
[Error][SafeState][2017-12-03_18_48_25]: None is not Working. Staying in Safe mode until it is fixed! Error: 'NoneType' object has no attribute 'close'
[Info][SafeState][2017-12-03_18_48_25]: Temperature sensor on Sensorboard reads: 27.625
[Info][SafeState][2017-12-03_18_48_25]: Temperature sensor on OBC reads: 35.5625
[Warning][SafeState][2017-12-03_18_48_25]: Could not recover. Trying again in 30 minutes.
[Warning][PSUBAT3][2017-12-03_18_48_26]: Battery state of charge low ... -1
[Error][PSUBAT3][2017-12-03_18_48_26]: Battery state of charge to low: -1, will enter safemode
[Warning][PSUBAT1][2017-12-03_18_51_58]: Battery voltage low ... -1
[Error][PSUBAT1][2017-12-03_18_51_58]: Battery voltage to low: -1, will enter safemode
[Warning][PSUBAT4][2017-12-03_18_51_58]: Battery state of charge low ... -1
[Error][PSUBAT4][2017-12-03_18_51_58]: Battery state of charge to low: -1, will enter safemode
[Warning][PSUBAT1][2017-12-03_18_58_40]: Full Capacity out of limits -1
[Warning][PSUBAT2][2017-12-03_18_58_40]: Full Capacity out of limits -1
[Warning][PSUBAT3][2017-12-03_18_58_40]: Battery state of charge low ... -1
[Error][PSUBAT3][2017-12-03_18_58_40]: Battery state of charge to low: -1, will enter safemode
[Warning][PSUBAT4][2017-12-03_19_04_56]: Temperature out of limits -273.25
